# Blender v2.81 (sub 16) OBJ File: 'Furniture.blend'
# www.blender.org
o Chair1_Cube.002
v 0.276248 -0.011576 0.259207
v 0.272935 0.020873 0.279016
v 0.295909 0.020871 0.256197
v 0.241677 0.428678 0.204716
v 0.218708 0.428642 0.227539
v 0.216045 0.451125 0.202058
v 0.299826 0.021308 -0.428320
v 0.277097 0.021415 -0.451056
v 0.280194 -0.011136 -0.430557
v 0.242049 0.451718 -0.387343
v 0.219332 0.451752 -0.410086
v -0.295909 0.020871 0.256197
v -0.272935 0.020873 0.279016
v -0.276248 -0.011576 0.259207
v -0.216045 0.451125 0.202058
v -0.218708 0.428642 0.227539
v -0.241677 0.428678 0.204716
v -0.280194 -0.011136 -0.430557
v -0.277097 0.021415 -0.451056
v -0.299826 0.021308 -0.428320
v -0.219332 0.451752 -0.410086
v -0.242049 0.451718 -0.387343
v 0.298574 0.021227 -0.210301
v 0.278933 -0.011217 -0.210885
v 0.218208 0.451414 -0.176462
v 0.215110 0.474075 -0.199368
v 0.244111 0.429004 -0.221494
v -0.298574 0.021227 -0.210301
v -0.278933 -0.011217 -0.210885
v -0.244111 0.429004 -0.221494
v -0.215110 0.474075 -0.199368
v -0.218208 0.451414 -0.176462
v 0.153193 1.109267 -0.229336
v 0.130243 1.109062 -0.206688
v 0.127548 1.131712 -0.229594
v 0.153741 1.109296 -0.324739
v 0.128083 1.131740 -0.322704
v 0.131039 1.109205 -0.347495
v -0.131039 1.109205 -0.347495
v -0.128083 1.131740 -0.322704
v -0.153741 1.109296 -0.324739
v -0.153193 1.109267 -0.229336
v -0.127548 1.131712 -0.229594
v -0.130243 1.109062 -0.206688
v 0.245821 0.224757 0.253278
v 0.268793 0.224775 0.230457
v 0.248215 0.236584 -0.430571
v 0.270938 0.236513 -0.407831
v -0.270938 0.236513 -0.407831
v -0.248215 0.236584 -0.430571
v -0.236454 0.301242 0.244386
v -0.259425 0.301266 0.221564
v 0.271343 0.225116 -0.215898
v -0.271343 0.225116 -0.215898
v 0.276765 -0.011507 0.168660
v 0.296422 0.020940 0.166342
v -0.216462 0.451181 0.129149
v -0.242146 0.428741 0.122621
v 0.216462 0.451181 0.129149
v 0.242146 0.428741 0.122621
v -0.276765 -0.011507 0.168660
v -0.296422 0.020940 0.166342
v 0.269284 0.224840 0.144482
v -0.269818 0.224912 0.051061
v 0.141266 -0.011136 -0.430557
v 0.208615 0.021415 -0.451056
v -0.170165 -0.011576 0.259207
v -0.168125 0.020873 0.279016
v -0.091004 0.451125 0.202058
v -0.092644 0.428642 0.227539
v -0.097698 0.451414 -0.176462
v -0.099260 0.474075 -0.199368
v 0.064576 1.131740 -0.322704
v 0.098654 1.109205 -0.347495
v 0.065665 1.109062 -0.206688
v 0.064306 1.131712 -0.229594
v 0.165126 0.451752 -0.410086
v -0.059946 0.224757 0.253278
v 0.186871 0.236584 -0.430571
v -0.089751 0.451181 0.129149
v -0.237334 0.283956 0.245221
v -0.260304 0.283980 0.222399
v -0.175186 0.780478 -0.378791
v -0.197895 0.780507 -0.356041
v -0.172677 0.791568 -0.203028
v -0.198652 0.769135 -0.225415
v 0.153174 0.934314 -0.204857
v 0.181361 0.918973 -0.227104
v 0.151735 0.948139 -0.356285
v 0.177239 0.916766 -0.343094
v 0.126956 0.947963 -0.363788
v 0.078457 0.963024 -0.204547
v 0.137548 0.955749 -0.206232
v 0.146010 0.937702 -0.364454
v 0.167425 0.947083 -0.328786
v 0.156075 0.951099 -0.229211
v -0.121793 0.445709 -0.186969
v -0.103763 0.445476 0.118643
v -0.104091 0.433759 0.189601
v -0.124061 0.419005 -0.169061
v -0.109040 0.444518 -0.186714
v -0.116114 0.418771 0.136551
vt 0.625000 0.237217
vt 0.625000 0.236892
vt 0.625000 0.180448
vt 0.625000 0.180099
vt 0.506196 0.508395
vt 0.499998 0.578532
vt 0.612597 0.574252
vt 0.625000 0.508909
vt 0.680287 0.712268
vt 0.680295 0.741058
vt 0.863159 0.741058
vt 0.863172 0.712268
vt 0.506222 0.289022
vt 0.506222 0.489201
vt 0.625000 0.488208
vt 0.625000 0.289770
vt 0.825567 0.580719
vt 0.804095 0.582645
vt 0.642706 0.582645
vt 0.640108 0.582645
vt 0.499998 0.171468
vt 0.506196 0.241605
vt 0.625000 0.241091
vt 0.612597 0.175748
vt 0.625000 0.571957
vt 0.625000 0.569552
vt 0.625000 0.513108
vt 0.625000 0.511009
vt 0.500000 0.847115
vt 0.500000 0.989349
vt 0.612593 0.988639
vt 0.612593 0.805000
vt 0.630559 0.296257
vt 0.625000 0.294153
vt 0.625000 0.267613
vt 0.625000 0.266721
vt 0.499999 0.676101
vt 0.538902 0.741534
vt 0.612604 0.741280
vt 0.612604 0.709171
vt 0.803547 0.513522
vt 0.803526 0.569123
vt 0.856166 0.569123
vt 0.856208 0.513522
vt 0.134456 0.742309
vt 0.125000 0.741287
vt 0.135806 0.750000
vt 0.612604 0.008720
vt 0.625000 0.008891
vt 0.614216 0.000000
vt 0.387391 0.242119
vt 0.375000 0.242232
vt 0.389092 0.250000
vt 0.387396 0.742057
vt 0.375000 0.742353
vt 0.389030 0.750000
vt 0.636841 0.741058
vt 0.625000 0.742107
vt 0.635403 0.750000
vt 0.365646 0.507723
vt 0.375000 0.508489
vt 0.364326 0.500000
vt 0.863230 0.591587
vt 0.875000 0.582645
vt 0.861580 0.582645
vt 0.625000 0.574361
vt 0.636770 0.591587
vt 0.637511 0.582645
vt 0.625000 0.180799
vt 0.625000 0.167355
vt 0.625000 0.250000
vt 0.625000 0.236400
vt 0.625000 0.482387
vt 0.625000 0.500000
vt 0.625000 0.481129
vt 0.643834 0.569123
vt 0.134443 0.711555
vt 0.125000 0.710768
vt 0.501539 1.000000
vt 0.614143 1.000000
vt 0.506222 0.260799
vt 0.387444 0.259805
vt 0.191695 0.507723
vt 0.163929 0.500000
vt 0.135674 0.500000
vt 0.134354 0.507723
vt 0.387444 0.490195
vt 0.387391 0.507881
vt 0.365614 0.582645
vt 0.387396 0.582645
vt 0.636827 0.712268
vt 0.500000 0.761762
vt 0.500000 0.742785
vt 0.387407 0.759941
vt 0.321174 0.742309
vt 0.320342 0.750000
vt 0.364194 0.750000
vt 0.365544 0.742309
vt 0.679409 0.750000
vt 0.864597 0.750000
vt 0.125000 0.508490
vt 0.125000 0.582645
vt 0.134386 0.582645
vt 0.875000 0.711392
vt 0.365557 0.711555
vt 0.387396 0.711351
vt 0.807087 0.591587
vt 0.806714 0.582645
vt 0.875000 0.569271
vt 0.875000 0.512300
vt 0.831744 0.500000
vt 0.641422 0.500000
vt 0.643792 0.513522
vt 0.625000 0.485297
vt 0.858085 0.582645
vt 0.875000 0.582645
vt 0.875000 0.582645
vt 0.857294 0.582645
vt 0.616129 0.253085
vt 0.625000 0.238132
vt 0.625000 0.261792
vt 0.500000 0.039755
vt 0.612604 0.175416
vt 0.612604 0.040828
vt 0.387396 0.038649
vt 0.387396 0.167355
vt 0.612593 0.761361
vt 0.538898 0.760896
vt 0.387407 0.990059
vt 0.388935 1.000000
vt 0.387407 0.804125
vt 0.387444 0.288274
vt 0.387396 0.007943
vt 0.500000 0.008332
vt 0.875000 0.742107
vt 0.612604 0.574584
vt 0.125000 0.582844
vt 0.807087 0.591587
vt 0.680287 0.712268
vt 0.858578 0.500000
vt 0.862489 0.582645
vt 0.841158 0.572073
vt 0.875000 0.582645
vt 0.625000 0.179118
vt 0.625000 0.175639
vt 0.807087 0.591587
vt 0.680287 0.712268
vt 0.680295 0.741058
vt 0.806714 0.582645
vn 0.9969 0.0508 0.0598
vn -0.9912 0.1325 0.0058
vn 0.0000 1.0000 0.0008
vn 0.0000 0.0948 -0.9955
vn -0.0014 0.0126 0.9999
vn 0.9912 0.1325 0.0058
vn 0.0000 0.1252 0.9921
vn 0.1292 0.0965 -0.9869
vn -0.9908 0.1356 0.0017
vn 0.0000 1.0000 0.0003
vn 0.6628 -0.3397 0.6673
vn 0.5265 0.6640 0.5309
vn 0.6606 -0.3541 -0.6620
vn -0.6628 -0.3397 0.6673
vn -0.5265 0.6640 0.5309
vn -0.6606 -0.3541 -0.6620
vn 0.8632 0.4124 0.2913
vn -0.8632 0.4124 0.2913
vn 0.5439 0.6278 0.5568
vn 0.5324 0.6570 -0.5338
vn -0.5324 0.6570 -0.5338
vn -0.5439 0.6278 0.5568
vn 0.8554 -0.5179 0.0045
vn 0.6932 0.1803 0.6979
vn 0.6985 0.1602 -0.6975
vn 0.0000 -0.5329 -0.8462
vn -0.6985 0.1602 -0.6975
vn -0.8554 -0.5179 0.0047
vn -0.6586 0.7525 0.0043
vn -0.6928 0.1833 0.6975
vn 0.0000 -0.5210 0.8535
vn 0.0000 0.7498 0.6616
vn 0.8554 -0.5179 0.0047
vn 0.6586 0.7525 0.0043
vn -0.8554 -0.5179 0.0045
vn 0.0560 0.5489 0.8340
vn 0.6586 0.7525 0.0040
vn 0.0000 0.7400 -0.6727
vn -0.6586 0.7525 0.0040
vn 0.0000 0.7111 0.7031
vn -0.6983 0.1015 0.7086
vn 0.7409 0.0255 0.6711
vn 0.6619 0.1652 -0.7311
vn -0.6921 0.1885 0.6968
vn -0.9909 0.1344 0.0077
vn 0.0544 0.9985 -0.0010
vn -0.0017 0.1270 0.9919
vn 0.0000 0.7400 -0.6726
vn 0.0000 0.7109 0.7033
vn -0.0024 0.0967 -0.9953
vn 0.0031 0.1276 0.9918
vn 0.0142 0.0096 0.9999
vn 0.0223 0.9990 -0.0376
vn 0.3137 0.8925 -0.3239
vn -0.3830 -0.8347 0.3957
vn 0.0016 0.0110 0.9999
vn -0.0011 0.0937 -0.9956
vn 0.7910 0.1080 -0.6022
vn 0.6719 0.0967 0.7343
vn -0.6983 0.1015 0.7085
vn 0.0041 0.0936 -0.9956
vn -0.0011 0.0113 0.9999
vn 0.9911 0.1329 -0.0121
vn -0.1681 -0.9853 0.0287
vn -0.0880 -0.9946 0.0551
vn 0.3839 0.9233 0.0160
vn 0.5208 0.8535 -0.0177
vn -0.7733 0.6337 0.0206
vn 0.8590 -0.5057 -0.0795
vn 0.0266 0.4728 0.8808
vn -0.7834 0.6215 -0.0067
vn 0.9564 -0.2892 -0.0409
vn -0.7177 0.5548 0.4208
s off
f 95/1/1 36/2/1 33/3/1 96/4/1
f 49/5/2 54/6/2 30/7/2 22/8/2
f 80/9/3 69/10/3 6/11/3 59/12/3
f 79/13/4 50/14/4 21/15/4 77/16/4
f 92/17/5 75/18/5 44/19/5 85/20/5
f 53/21/6 48/22/6 10/23/6 27/24/6
f 86/25/2 42/26/2 41/27/2 84/28/2
f 78/29/7 45/30/7 5/31/7 70/32/7
f 91/33/8 74/34/8 38/35/8 89/36/8
f 64/37/9 52/38/9 17/39/9 58/40/9
f 73/41/10 76/42/10 35/43/10 37/44/10
f 1/45/11 3/46/11 2/47/11
f 4/48/12 6/49/12 5/50/12
f 7/51/13 9/52/13 8/53/13
f 12/54/14 14/55/14 13/56/14
f 15/57/15 17/58/15 16/59/15
f 18/60/16 20/61/16 19/62/16
f 25/63/17 27/64/17 26/65/17
f 30/66/18 32/67/18 31/68/18
f 33/3/19 35/69/19 34/70/19
f 36/2/20 38/71/20 37/72/20
f 39/73/21 41/74/21 40/75/21
f 42/26/22 44/19/22 43/76/22
f 55/77/23 56/78/23 3/46/23 1/45/23
f 45/30/24 46/79/24 4/80/24 5/31/24
f 47/81/25 48/22/25 7/51/25 8/82/25
f 65/83/26 66/84/26 8/85/26 9/86/26
f 49/5/27 50/14/27 19/87/27 20/88/27
f 29/89/28 28/90/28 20/88/28 18/60/28
f 57/91/29 58/40/29 17/39/29 15/57/29
f 81/92/30 82/93/30 12/54/30 13/94/30
f 67/95/31 68/96/31 13/97/31 14/98/31
f 69/10/32 70/99/32 5/100/32 6/11/32
f 9/86/33 7/101/33 23/102/33 24/103/33
f 59/12/34 60/104/34 27/64/34 25/63/34
f 61/105/35 62/106/35 28/90/35 29/89/35
f 97/107/36 72/108/36 31/68/36 32/67/36
f 35/43/37 33/109/37 36/110/37 37/44/37
f 73/41/38 74/111/38 39/112/38 40/113/38
f 40/113/39 41/27/39 42/26/39 43/76/39
f 75/18/40 76/42/40 43/76/40 44/19/40
f 83/114/27 84/28/27 41/27/27 39/73/27
f 85/20/41 86/25/41 30/66/41 31/68/41
f 93/115/42 96/116/42 33/117/42 34/118/42
f 94/119/43 90/120/43 10/23/43 11/121/43
f 63/122/6 53/21/6 27/123/6 60/124/6
f 56/125/6 23/126/6 53/21/6 63/122/6
f 16/127/44 17/39/44 52/38/44 51/128/44
f 22/8/27 21/15/27 50/14/27 49/5/27
f 11/121/25 10/23/25 48/22/25 47/81/25
f 2/129/24 3/130/24 46/79/24 45/30/24
f 62/106/45 12/54/45 82/93/45 64/37/45
f 68/131/7 2/129/7 45/30/7 78/29/7
f 23/126/6 7/51/6 48/22/6 53/21/6
f 66/132/4 19/87/4 50/14/4 79/13/4
f 20/88/2 28/90/2 54/6/2 49/5/2
f 28/90/2 62/106/2 64/37/2 54/6/2
f 3/133/6 56/125/6 63/122/6 46/134/6
f 46/134/6 63/122/6 60/124/6 4/48/6
f 14/98/35 12/54/35 62/106/35 61/105/35
f 6/11/34 4/135/34 60/104/34 59/12/34
f 32/67/29 30/136/29 58/40/29 57/91/29
f 24/103/23 23/137/23 56/78/23 55/77/23
f 54/6/2 64/37/2 58/40/2 30/136/2
f 71/138/3 80/9/3 59/12/3 25/63/3
f 32/67/46 57/91/46 98/139/46 97/107/46
f 8/82/4 66/132/4 79/13/4 47/81/4
f 13/94/47 68/131/47 78/29/47 81/92/47
f 34/118/40 35/43/40 76/42/40 75/18/40
f 37/44/48 38/140/48 74/111/48 73/41/48
f 25/63/49 26/141/49 72/108/49 71/138/49
f 15/57/32 16/59/32 70/99/32 69/10/32
f 1/45/31 2/47/31 68/96/31 67/95/31
f 18/60/26 19/62/26 66/84/26 65/83/26
f 40/113/10 43/76/10 76/42/10 73/41/10
f 83/114/50 39/73/50 74/34/50 91/33/50
f 51/128/51 78/29/51 70/32/51 16/127/51
f 93/115/52 34/118/52 75/18/52 92/17/52
f 47/81/4 79/13/4 77/16/4 11/121/4
f 57/91/53 15/57/53 69/10/53 98/139/53
f 81/92/54 78/29/54 64/37/54 82/93/54
f 51/128/55 52/38/55 64/37/55 78/29/55
f 26/141/56 87/142/56 92/17/56 72/108/56
f 21/15/57 83/114/57 91/33/57 77/16/57
f 38/35/58 36/2/58 95/1/58 89/36/58
f 26/141/59 27/64/59 88/143/59 87/142/59
f 44/19/60 42/26/60 86/25/60 85/20/60
f 21/15/27 22/8/27 84/28/27 83/114/27
f 77/16/61 91/33/61 94/119/61 11/121/61
f 30/66/2 86/25/2 84/28/2 22/8/2
f 72/108/62 92/17/62 85/20/62 31/68/62
f 10/23/63 90/120/63 88/144/63 27/145/63
f 96/4/64 93/115/64 89/36/64 95/1/64
f 92/17/65 91/33/65 89/36/65 93/115/65
f 92/17/66 87/142/66 94/119/66 91/33/66
f 90/120/67 94/119/67 87/142/67 88/144/67
f 71/138/68 100/146/68 102/147/68 80/9/68
f 69/10/69 99/148/69 102/147/69 98/139/69
f 97/107/70 100/146/70 101/149/70 72/108/70
f 80/9/71 102/147/71 99/148/71 69/10/71
f 98/139/72 102/147/72 100/146/72 97/107/72
f 72/108/73 101/149/73 100/146/73 71/138/73
