# Blender v2.81 (sub 16) OBJ File: ''
# www.blender.org
o Rock_Cube.001
v -0.476353 -0.100000 0.871007
v -0.300664 0.387983 0.549761
v -0.854065 -0.100000 -1.087900
v -0.510603 0.387983 -0.548665
v 0.476353 -0.100000 1.250155
v 0.300664 0.387983 0.707896
v 0.476353 -0.100000 -0.871007
v 0.300664 0.387983 -0.549761
v -1.325784 -0.100000 0.000000
v -0.550132 0.387983 0.000000
v 1.000000 -0.100000 0.000000
v 0.631179 0.387983 0.000000
vt 0.375000 0.125000
vt 0.625000 0.125000
vt 0.625000 0.250000
vt 0.375000 0.250000
vt 0.625000 0.500000
vt 0.375000 0.500000
vt 0.375000 0.625000
vt 0.625000 0.625000
vt 0.625000 0.750000
vt 0.375000 0.750000
vt 0.625000 1.000000
vt 0.375000 1.000000
vt 0.875000 0.625000
vt 0.875000 0.750000
vt 0.875000 0.500000
vt 0.375000 0.000000
vt 0.625000 0.000000
vn -0.5936 0.7831 -0.1854
vn 0.0760 0.6520 -0.7544
vn 0.7391 0.5915 0.3224
vn -0.2507 0.6415 0.7250
vn 0.0000 1.0000 0.0000
vn 0.7193 0.5437 -0.4325
vn -0.5671 0.6972 0.4386
s off
f 9/1/1 10/2/1 4/3/1 3/4/1
f 3/4/2 4/3/2 8/5/2 7/6/2
f 11/7/3 12/8/3 6/9/3 5/10/3
f 5/10/4 6/9/4 2/11/4 1/12/4
f 12/8/5 10/13/5 2/14/5 6/9/5
f 8/5/5 4/15/5 10/13/5 12/8/5
f 7/6/6 8/5/6 12/8/6 11/7/6
f 1/16/7 2/17/7 10/2/7 9/1/7
