%YAML 1.1
%TAG !u! tag:unity3d.com,2011:
--- !u!1001 &2743941253980845716
PrefabInstance:
  m_ObjectHideFlags: 0
  serializedVersion: 2
  m_Modification:
    m_TransformParent: {fileID: 694609462454479924}
    m_Modifications:
    - target: {fileID: -927199367670048503, guid: 2b7ba0432bb75d3469d9365b2f767092,
        type: 3}
      propertyPath: m_Name
      value: candle05
      objectReference: {fileID: 0}
    - target: {fileID: -4216859302048453862, guid: 2b7ba0432bb75d3469d9365b2f767092,
        type: 3}
      propertyPath: m_LocalPosition.x
      value: 0
      objectReference: {fileID: 0}
    - target: {fileID: -4216859302048453862, guid: 2b7ba0432bb75d3469d9365b2f767092,
        type: 3}
      propertyPath: m_LocalPosition.y
      value: 0
      objectReference: {fileID: 0}
    - target: {fileID: -4216859302048453862, guid: 2b7ba0432bb75d3469d9365b2f767092,
        type: 3}
      propertyPath: m_LocalPosition.z
      value: 0
      objectReference: {fileID: 0}
    - target: {fileID: -4216859302048453862, guid: 2b7ba0432bb75d3469d9365b2f767092,
        type: 3}
      propertyPath: m_LocalRotation.x
      value: -0
      objectReference: {fileID: 0}
    - target: {fileID: -4216859302048453862, guid: 2b7ba0432bb75d3469d9365b2f767092,
        type: 3}
      propertyPath: m_LocalRotation.y
      value: -0
      objectReference: {fileID: 0}
    - target: {fileID: -4216859302048453862, guid: 2b7ba0432bb75d3469d9365b2f767092,
        type: 3}
      propertyPath: m_LocalRotation.z
      value: -0
      objectReference: {fileID: 0}
    - target: {fileID: -4216859302048453862, guid: 2b7ba0432bb75d3469d9365b2f767092,
        type: 3}
      propertyPath: m_LocalRotation.w
      value: 1
      objectReference: {fileID: 0}
    - target: {fileID: -4216859302048453862, guid: 2b7ba0432bb75d3469d9365b2f767092,
        type: 3}
      propertyPath: m_RootOrder
      value: 0
      objectReference: {fileID: 0}
    - target: {fileID: -4216859302048453862, guid: 2b7ba0432bb75d3469d9365b2f767092,
        type: 3}
      propertyPath: m_LocalEulerAnglesHint.x
      value: 0
      objectReference: {fileID: 0}
    - target: {fileID: -4216859302048453862, guid: 2b7ba0432bb75d3469d9365b2f767092,
        type: 3}
      propertyPath: m_LocalEulerAnglesHint.y
      value: 0
      objectReference: {fileID: 0}
    - target: {fileID: -4216859302048453862, guid: 2b7ba0432bb75d3469d9365b2f767092,
        type: 3}
      propertyPath: m_LocalEulerAnglesHint.z
      value: 0
      objectReference: {fileID: 0}
    - target: {fileID: -4216859302048453862, guid: 2b7ba0432bb75d3469d9365b2f767092,
        type: 3}
      propertyPath: m_LocalScale.x
      value: 1
      objectReference: {fileID: 0}
    - target: {fileID: -4216859302048453862, guid: 2b7ba0432bb75d3469d9365b2f767092,
        type: 3}
      propertyPath: m_LocalScale.z
      value: 1
      objectReference: {fileID: 0}
    - target: {fileID: -4216859302048453862, guid: 2b7ba0432bb75d3469d9365b2f767092,
        type: 3}
      propertyPath: m_LocalScale.y
      value: 1
      objectReference: {fileID: 0}
    m_RemovedComponents: []
  m_SourcePrefab: {fileID: 100100000, guid: 2b7ba0432bb75d3469d9365b2f767092, type: 3}
--- !u!1001 &5810244281665025273
PrefabInstance:
  m_ObjectHideFlags: 0
  serializedVersion: 2
  m_Modification:
    m_TransformParent: {fileID: 0}
    m_Modifications:
    - target: {fileID: 1569372751065872907, guid: 0aca7e900789252418cd3358edb1a83a,
        type: 3}
      propertyPath: m_Name
      value: Candle5
      objectReference: {fileID: 0}
    - target: {fileID: 1569372751065872906, guid: 0aca7e900789252418cd3358edb1a83a,
        type: 3}
      propertyPath: m_LocalPosition.x
      value: 0
      objectReference: {fileID: 0}
    - target: {fileID: 1569372751065872906, guid: 0aca7e900789252418cd3358edb1a83a,
        type: 3}
      propertyPath: m_LocalPosition.y
      value: 0
      objectReference: {fileID: 0}
    - target: {fileID: 1569372751065872906, guid: 0aca7e900789252418cd3358edb1a83a,
        type: 3}
      propertyPath: m_LocalPosition.z
      value: 0
      objectReference: {fileID: 0}
    - target: {fileID: 1569372751065872906, guid: 0aca7e900789252418cd3358edb1a83a,
        type: 3}
      propertyPath: m_LocalRotation.x
      value: 0
      objectReference: {fileID: 0}
    - target: {fileID: 1569372751065872906, guid: 0aca7e900789252418cd3358edb1a83a,
        type: 3}
      propertyPath: m_LocalRotation.y
      value: 0
      objectReference: {fileID: 0}
    - target: {fileID: 1569372751065872906, guid: 0aca7e900789252418cd3358edb1a83a,
        type: 3}
      propertyPath: m_LocalRotation.z
      value: 0
      objectReference: {fileID: 0}
    - target: {fileID: 1569372751065872906, guid: 0aca7e900789252418cd3358edb1a83a,
        type: 3}
      propertyPath: m_LocalRotation.w
      value: 1
      objectReference: {fileID: 0}
    - target: {fileID: 1569372751065872906, guid: 0aca7e900789252418cd3358edb1a83a,
        type: 3}
      propertyPath: m_RootOrder
      value: 0
      objectReference: {fileID: 0}
    - target: {fileID: 1569372751065872906, guid: 0aca7e900789252418cd3358edb1a83a,
        type: 3}
      propertyPath: m_LocalEulerAnglesHint.x
      value: 0
      objectReference: {fileID: 0}
    - target: {fileID: 1569372751065872906, guid: 0aca7e900789252418cd3358edb1a83a,
        type: 3}
      propertyPath: m_LocalEulerAnglesHint.y
      value: 0
      objectReference: {fileID: 0}
    - target: {fileID: 1569372751065872906, guid: 0aca7e900789252418cd3358edb1a83a,
        type: 3}
      propertyPath: m_LocalEulerAnglesHint.z
      value: 0
      objectReference: {fileID: 0}
    - target: {fileID: 1569372751065872906, guid: 0aca7e900789252418cd3358edb1a83a,
        type: 3}
      propertyPath: m_LocalScale.x
      value: 0.5
      objectReference: {fileID: 0}
    - target: {fileID: 1569372751065872906, guid: 0aca7e900789252418cd3358edb1a83a,
        type: 3}
      propertyPath: m_LocalScale.y
      value: 0.5
      objectReference: {fileID: 0}
    - target: {fileID: 1569372751065872906, guid: 0aca7e900789252418cd3358edb1a83a,
        type: 3}
      propertyPath: m_LocalScale.z
      value: 0.5
      objectReference: {fileID: 0}
    - target: {fileID: 6413580808851429581, guid: 0aca7e900789252418cd3358edb1a83a,
        type: 3}
      propertyPath: m_LocalScale.x
      value: 50
      objectReference: {fileID: 0}
    - target: {fileID: 6413580808851429581, guid: 0aca7e900789252418cd3358edb1a83a,
        type: 3}
      propertyPath: m_LocalScale.y
      value: 50
      objectReference: {fileID: 0}
    - target: {fileID: 6413580808851429581, guid: 0aca7e900789252418cd3358edb1a83a,
        type: 3}
      propertyPath: m_LocalScale.z
      value: 50
      objectReference: {fileID: 0}
    - target: {fileID: 1569372750792894189, guid: 0aca7e900789252418cd3358edb1a83a,
        type: 3}
      propertyPath: m_LocalPosition.y
      value: 1.22
      objectReference: {fileID: 0}
    m_RemovedComponents: []
  m_SourcePrefab: {fileID: 100100000, guid: 0aca7e900789252418cd3358edb1a83a, type: 3}
--- !u!4 &694609462454479924 stripped
Transform:
  m_CorrespondingSourceObject: {fileID: 6413580808851429581, guid: 0aca7e900789252418cd3358edb1a83a,
    type: 3}
  m_PrefabInstance: {fileID: 5810244281665025273}
  m_PrefabAsset: {fileID: 0}
