# This file uses centimeters as units for non-parametric coordinates.

mtllib Pillar6.mtl
g default
v 0.591476 0.000000 -0.601785
v -0.500000 0.000000 -0.866026
v -1.000000 0.000000 -0.000000
v -0.500000 0.000000 0.866025
v 0.578618 0.000000 0.757299
v 0.725536 0.000000 0.000000
v 0.644850 0.556496 -0.817372
v -0.539663 0.556496 -0.934724
v -1.079327 0.556496 -0.000000
v -0.539663 0.556496 0.934724
v 0.539663 0.556496 0.817373
v 0.790843 0.556496 0.000000
v 0.591780 0.942883 -0.560904
v -0.370332 1.044923 -0.641435
v -0.740665 1.044923 -0.000000
v -0.370333 1.044923 0.641435
v 0.591780 0.942883 0.560904
v 0.905153 0.942883 -0.000000
v 0.307497 5.416756 -0.532600
v -0.307497 5.416756 -0.532601
v -0.614994 5.416756 -0.000000
v -0.307497 5.416756 0.532600
v 0.307497 5.416756 0.532601
v 0.614994 5.416756 -0.000000
v 0.527012 5.568380 -0.912811
v -0.527012 5.568380 -0.912812
v -1.054024 5.568380 -0.000000
v -0.527012 5.568380 0.912811
v 0.527012 5.568380 0.912812
v 1.054024 5.568380 0.000000
v 0.500000 5.924526 -0.866025
v -0.500000 5.924526 -0.866025
v -1.000000 5.924526 -0.000000
v -0.500000 5.924526 0.866025
v 0.500000 5.924526 0.866025
v 1.000000 5.924526 -0.000000
v 0.000000 5.927073 -0.000000
v -0.369091 1.131265 -0.639285
v 0.369092 1.131265 -0.639285
v 0.798781 1.131265 -0.000000
v 0.369091 1.131265 0.639285
v -0.369092 1.131265 0.639285
v -0.738183 1.131265 -0.000000
v -0.365627 1.372275 -0.633285
v 0.365628 1.372275 -0.633285
v 0.731255 1.372275 -0.000000
v 0.365627 1.372275 0.633285
v -0.365628 1.372275 0.633285
v -0.731255 1.372275 -0.000000
vt 0.020094 0.013993
vt 0.020196 0.087881
vt 0.657738 0.087881
vt 0.152579 0.013993
vt 0.152579 0.087881
vt 0.285063 0.013993
vt 0.284961 0.087881
vt 0.432227 0.013993
vt 0.423632 0.087881
vt 0.545892 0.013993
vt 0.545892 0.087881
vt 0.019607 0.152732
vt 0.639546 0.139184
vt 0.152579 0.152732
vt 0.285551 0.152732
vt 0.452238 0.139184
vt 0.545892 0.139184
vt 0.019600 0.164196
vt 0.675154 0.164196
vt 0.152579 0.164196
vt 0.285557 0.164196
vt 0.416630 0.164196
vt 0.545892 0.164196
vt 0.019221 0.733200
vt 0.020165 0.753332
vt 0.675702 0.753332
vt 0.152579 0.733200
vt 0.152579 0.753332
vt 0.285936 0.733200
vt 0.284992 0.753332
vt 0.416995 0.733200
vt 0.416081 0.753332
vt 0.545892 0.733200
vt 0.545892 0.753332
vt 0.020094 0.800619
vt 0.675633 0.800619
vt 0.152579 0.800619
vt 0.285063 0.800619
vt 0.416150 0.800619
vt 0.545892 0.800619
vt 0.949037 0.989809
vt 0.862575 0.989809
vt 0.905806 0.903347
vt 0.819343 0.903346
vt 0.862575 0.816884
vt 0.949037 0.816884
vt 0.992269 0.903347
vt 0.019582 0.196196
vt 0.675136 0.196196
vt 0.545892 0.196196
vt 0.416647 0.196196
vt 0.285575 0.196196
vt 0.152579 0.196196
vt 0.643977 0.013993
vt 0.806720 0.013993
vt 0.806822 0.087881
vt 0.806232 0.152732
vt 0.805847 0.733200
vt 0.806791 0.753332
vt 0.806720 0.800619
vt 0.806226 0.164196
vt 0.806208 0.196196
vt 0.674788 0.733200
vn 0.160265 -0.246133 -0.955894
vn 0.160265 -0.246133 -0.955894
vn 0.147896 0.073569 -0.986263
vn 0.145389 0.111412 -0.983082
vn -0.859501 -0.122519 -0.496233
vn -0.859501 -0.122519 -0.496233
vn -0.854685 0.161299 -0.493453
vn -0.854685 0.161299 -0.493453
vn -0.859501 -0.122519 0.496233
vn -0.859501 -0.122519 0.496233
vn -0.854685 0.161299 0.493453
vn -0.854685 0.161299 0.493453
vn 0.103596 -0.107090 0.988837
vn 0.103596 -0.107090 0.988837
vn 0.111492 0.198288 0.973782
vn 0.111044 0.158702 0.981062
vn 0.968863 -0.036161 0.244941
vn 0.968863 -0.036161 0.244941
vn 0.952585 -0.051414 0.299898
vn 0.957149 -0.047457 0.285681
vn 0.971320 -0.140703 -0.191678
vn 0.971320 -0.140703 -0.191678
vn 0.967964 -0.078783 -0.238411
vn 0.966976 -0.069617 -0.245176
vn 0.095438 0.415293 -0.904668
vn 0.099938 0.476596 -0.873424
vn -0.762431 0.474269 -0.440190
vn -0.762431 0.474269 -0.440190
vn -0.762431 0.474269 0.440190
vn -0.762431 0.474269 0.440190
vn 0.104271 0.458138 0.882744
vn 0.099591 0.401047 0.910628
vn 0.896823 0.137605 0.420444
vn 0.893236 0.152899 0.422791
vn 0.895850 0.230704 -0.379774
vn 0.903250 0.210381 -0.374003
vn 0.012540 -0.082580 -0.996506
vn 0.015772 -0.110327 -0.993770
vn -0.865757 0.024887 -0.499845
vn -0.865757 0.024887 -0.499845
vn -0.865757 0.024887 0.499845
vn -0.865757 0.024887 0.499845
vn 0.015771 -0.110327 0.993770
vn 0.012540 -0.082580 0.996505
vn 0.794561 0.352617 0.494301
vn 0.817188 0.269851 0.509297
vn 0.817188 0.269851 -0.509297
vn 0.794562 0.352618 -0.494300
vn 0.000000 -0.118710 -0.992929
vn 0.000000 -0.118710 -0.992929
vn 0.000000 -0.367773 -0.929916
vn 0.000000 -0.367773 -0.929916
vn -0.859902 -0.118710 -0.496465
vn -0.859902 -0.118710 -0.496465
vn -0.805330 -0.367773 -0.464958
vn -0.805330 -0.367773 -0.464958
vn -0.859902 -0.118710 0.496464
vn -0.859902 -0.118710 0.496464
vn -0.805330 -0.367773 0.464958
vn -0.805330 -0.367773 0.464958
vn -0.000000 -0.118710 0.992929
vn -0.000000 -0.118710 0.992929
vn -0.000000 -0.367773 0.929916
vn -0.000000 -0.367773 0.929916
vn 0.859902 -0.118710 0.496465
vn 0.859902 -0.118710 0.496465
vn 0.805331 -0.367773 0.464957
vn 0.805331 -0.367773 0.464957
vn 0.859902 -0.118710 -0.496464
vn 0.859902 -0.118710 -0.496464
vn 0.805331 -0.367773 -0.464958
vn 0.805331 -0.367773 -0.464958
vn 0.000000 0.130249 -0.991481
vn 0.000000 0.130249 -0.991481
vn -0.858648 0.130249 -0.495741
vn -0.858648 0.130249 -0.495741
vn -0.858648 0.130248 0.495741
vn -0.858648 0.130248 0.495741
vn -0.000000 0.130249 0.991481
vn -0.000000 0.130249 0.991481
vn 0.858648 0.130249 0.495740
vn 0.858648 0.130249 0.495740
vn 0.858648 0.130249 -0.495741
vn 0.858648 0.130249 -0.495741
vn 0.001273 0.999997 -0.002205
vn -0.001273 0.999997 -0.002205
vn -0.000000 1.000000 -0.000000
vn -0.002546 0.999997 0.000000
vn -0.001273 0.999997 0.002205
vn 0.001273 0.999997 0.002205
vn 0.002546 0.999997 0.000000
vn 0.000000 0.024887 -0.999690
vn 0.000000 0.024887 -0.999690
vn 0.864483 0.031634 -0.501667
vn 0.864390 0.032114 -0.501795
vn 0.864390 0.032114 0.501795
vn 0.864482 0.031634 0.501667
vn -0.000000 0.024887 0.999690
vn -0.000000 0.024887 0.999690
vn -0.865757 0.024887 0.499845
vn -0.865757 0.024887 0.499845
vn -0.865757 0.024887 -0.499845
vn -0.865757 0.024887 -0.499845
s 1
g Pillar6
usemtl initialShadingGroup
f 1/54/1 2/55/2 8/56/3 7/3/4
s 2
f 2/1/5 3/4/6 9/5/7 8/2/8
s 3
f 3/4/9 4/6/10 10/7/11 9/5/12
s 4
f 4/6/13 5/8/14 11/9/15 10/7/16
s 5
f 5/8/17 6/10/18 12/11/19 11/9/20
s 6
f 6/10/21 1/54/22 7/3/23 12/11/24
s 1
f 7/3/4 8/56/3 14/57/25 13/13/26
s 2
f 8/2/8 9/5/7 15/14/27 14/12/28
s 3
f 9/5/12 10/7/11 16/15/29 15/14/30
s 4
f 10/7/16 11/9/15 17/16/31 16/15/32
s 5
f 11/9/20 12/11/19 18/17/33 17/16/34
s 6
f 12/11/24 7/3/23 13/13/35 18/17/36
s 1
f 13/13/26 14/57/25 38/61/37 39/19/38
s 2
f 43/20/39 38/18/40 14/12/28 15/14/27
s 3
f 15/14/30 16/15/29 42/21/41 43/20/42
s 4
f 16/15/32 17/16/31 41/22/43 42/21/44
s 5
f 17/16/34 18/17/33 40/23/45 41/22/46
s 6
f 18/17/36 13/13/35 39/19/47 40/23/48
s 1
f 19/63/49 20/58/50 26/59/51 25/26/52
s 2
f 20/24/53 21/27/54 27/28/55 26/25/56
s 3
f 21/27/57 22/29/58 28/30/59 27/28/60
s 4
f 22/29/61 23/31/62 29/32/63 28/30/64
s 5
f 23/31/65 24/33/66 30/34/67 29/32/68
s 6
f 24/33/69 19/63/70 25/26/71 30/34/72
s 1
f 25/26/52 26/59/51 32/60/73 31/36/74
s 2
f 26/25/56 27/28/55 33/37/75 32/35/76
s 3
f 27/28/60 28/30/59 34/38/77 33/37/78
s 4
f 28/30/64 29/32/63 35/39/79 34/38/80
s 5
f 29/32/68 30/34/67 36/40/81 35/39/82
s 6
f 30/34/72 25/26/71 31/36/83 36/40/84
s 13
f 31/41/85 32/42/86 37/43/87
f 32/42/86 33/44/88 37/43/87
f 33/44/88 34/45/89 37/43/87
f 34/45/89 35/46/90 37/43/87
f 35/46/90 36/47/91 37/43/87
f 36/47/91 31/41/85 37/43/87
s 1
f 39/19/38 38/61/37 44/62/92 45/49/93
s 6
f 40/23/48 39/19/47 45/49/94 46/50/95
s 5
f 41/22/46 40/23/45 46/50/96 47/51/97
s 4
f 42/21/44 41/22/43 47/51/98 48/52/99
s 3
f 43/20/42 42/21/41 48/52/100 49/53/101
s 2
f 49/53/102 44/48/103 38/18/40 43/20/39
s 1
f 45/49/93 44/62/92 20/58/50 19/63/49
s 6
f 46/50/95 45/49/94 19/63/70 24/33/69
s 5
f 47/51/97 46/50/96 24/33/66 23/31/65
s 4
f 48/52/99 47/51/98 23/31/62 22/29/61
s 3
f 49/53/101 48/52/100 22/29/58 21/27/57
s 2
f 20/24/53 44/48/103 49/53/102 21/27/54
