# This file uses centimeters as units for non-parametric coordinates.

mtllib Pillar7.mtl
g default
v 0.500000 0.000000 -0.866025
v -0.500000 0.000000 -0.866026
v -1.000000 0.000000 -0.000000
v -0.500000 0.000000 0.866025
v 0.500000 0.000000 0.866025
v 1.000000 0.000000 0.000000
v 0.500000 3.264032 -0.866025
v -0.500000 3.264032 -0.866026
v -1.000000 3.264032 -0.000000
v -0.500000 3.264032 0.866025
v 0.500000 3.264032 0.866025
v 1.000000 3.264032 0.000000
v 0.500000 3.542331 -0.866025
v -0.535679 3.611460 -0.737782
v -0.737963 3.611460 -0.000000
v -0.462098 3.436351 0.742124
v 0.500000 3.436351 0.866025
v 1.000000 3.542331 0.000000
v 0.500000 4.115614 -0.866025
v -0.535679 4.115614 -0.737782
v -0.737963 4.115614 -0.000000
v -0.462098 4.115614 0.742124
v 0.500000 4.115614 0.866025
v 1.000000 4.115614 0.000000
v 0.500000 4.557887 -0.866025
v -0.500000 4.557887 -0.866026
v -1.000000 4.557887 -0.000000
v -0.500000 4.557887 0.866025
v 0.500000 4.557887 0.866025
v 1.000000 4.557887 0.000000
v 0.500000 5.806627 -0.866025
v -0.500000 5.806627 -0.866026
v -1.000000 5.806627 -0.000000
v -0.500000 5.806627 0.866025
v 0.500000 5.806627 0.866025
v 1.000000 5.806627 0.000000
v 0.000000 5.806627 0.000000
v 0.500000 0.671805 -0.866025
v -0.500000 0.671805 -0.866026
v -1.000000 0.671805 -0.000000
v -0.500000 0.671805 0.866025
v 0.500000 0.671805 0.866025
v 1.000000 0.671805 0.000000
v 0.451247 0.862868 -0.595310
v 0.829453 0.829246 0.116826
v 0.480019 1.023329 0.857917
v -0.500000 1.023329 0.866025
v -1.000000 1.023329 -0.000000
v -0.504580 1.056952 -0.635166
v 0.392098 1.371842 -0.581739
v 0.808297 1.560830 0.141637
v 0.499744 1.560643 0.866530
v -0.500000 1.428543 0.866025
v -1.000000 1.428543 -0.000000
v -0.517091 1.400181 -0.636964
v 0.500000 2.344297 -0.866025
v 0.982303 2.225768 -0.007729
v 0.483785 2.235706 0.858945
v -0.500000 2.344297 0.866025
v -1.000000 2.344297 -0.000000
v -0.500000 2.344297 -0.866026
vt 0.678837 0.109937
vt 0.035335 0.109937
vt 0.053481 0.161154
vt 0.164014 0.109937
vt 0.164014 0.156683
vt 0.292724 0.109937
vt 0.292724 0.156683
vt 0.421449 0.109937
vt 0.419792 0.156683
vt 0.550158 0.109937
vt 0.532968 0.130873
vt 0.035335 0.454651
vt 0.048162 0.500852
vt 0.678837 0.491659
vt 0.164014 0.454651
vt 0.164003 0.500852
vt 0.292724 0.454651
vt 0.288625 0.477566
vt 0.421449 0.454651
vt 0.421449 0.477566
vt 0.550158 0.454651
vt 0.550158 0.491659
vt 0.048162 0.567894
vt 0.678837 0.567894
vt 0.164003 0.567894
vt 0.288625 0.567894
vt 0.421449 0.567894
vt 0.550158 0.567894
vt 0.035335 0.626708
vt 0.678837 0.626708
vt 0.164014 0.626708
vt 0.292724 0.626708
vt 0.421449 0.626708
vt 0.550158 0.626708
vt 0.035335 0.792765
vt 0.678837 0.792765
vt 0.164014 0.792765
vt 0.292724 0.792765
vt 0.421449 0.792765
vt 0.550158 0.792765
vt 0.947559 0.989580
vt 0.857723 0.989580
vt 0.902641 0.899744
vt 0.812804 0.899744
vt 0.857722 0.809908
vt 0.947559 0.809908
vt 0.992477 0.899744
vt 0.035335 0.020600
vt 0.164014 0.020600
vt 0.292724 0.020600
vt 0.421449 0.020600
vt 0.550158 0.020600
vt 0.528846 0.228159
vt 0.421390 0.228134
vt 0.292724 0.210568
vt 0.164014 0.210568
vt 0.054781 0.206796
vt 0.551126 0.316583
vt 0.420139 0.317904
vt 0.292724 0.332345
vt 0.164014 0.332345
vt 0.035335 0.332345
vt 0.807500 0.109937
vt 0.825646 0.161154
vt 0.807500 0.454651
vt 0.820326 0.500852
vt 0.820326 0.567894
vt 0.807500 0.626708
vt 0.807500 0.792765
vt 0.678837 0.020600
vt 0.807500 0.020600
vt 0.663484 0.135345
vt 0.826945 0.206796
vt 0.670308 0.203028
vt 0.807500 0.332345
vt 0.678837 0.332345
vt 0.678837 0.454651
vn 0.028660 0.234193 -0.971768
vn 0.030740 0.251187 -0.967450
vn 0.068886 0.308846 -0.948614
vn 0.073281 0.411100 -0.908640
vn -0.857525 0.043193 -0.512625
vn -0.854798 0.055381 -0.515998
vn -0.813293 0.083151 -0.575882
vn -0.814387 0.089861 -0.573323
vn -0.866026 0.000000 0.500000
vn -0.866026 0.000000 0.500000
vn -0.866026 0.000000 0.500000
vn -0.866026 0.000000 0.500000
vn 0.001397 0.003976 0.999991
vn 0.001364 0.003880 0.999992
vn 0.004301 -0.000239 0.999991
vn 0.004302 -0.000303 0.999991
vn 0.872216 0.059944 0.485434
vn 0.869903 0.033574 0.492079
vn 0.899684 0.104487 0.423852
vn 0.906827 0.051410 0.418356
vn 0.850477 0.208281 -0.483019
vn 0.861127 0.126915 -0.492294
vn 0.820180 0.349030 -0.453301
vn 0.836012 0.293212 -0.463800
vn -0.014399 0.051738 -0.998557
vn -0.015041 0.054046 -0.998425
vn -0.101232 0.064677 -0.992758
vn -0.097178 0.076599 -0.992315
vn -0.874574 0.075816 -0.478929
vn -0.874751 0.078164 -0.478226
vn -0.930470 0.171048 -0.323987
vn -0.927455 0.181043 -0.327185
vn -0.862392 0.104576 0.495323
vn -0.863010 0.096537 0.495878
vn -0.876280 0.271934 0.397724
vn -0.903221 0.188385 0.385620
vn -0.005563 0.046019 0.998925
vn -0.006609 0.051838 0.998634
vn -0.114215 0.074609 0.990650
vn -0.113517 0.078359 0.990441
vn 0.866227 -0.014611 0.499437
vn 0.866227 -0.014605 0.499438
vn 0.866025 0.000000 0.500000
vn 0.866025 0.000000 0.500000
vn 0.868112 -0.004574 -0.496347
vn 0.868117 -0.004584 -0.496339
vn 0.866026 0.000000 -0.500000
vn 0.866026 0.000000 -0.500000
vn -0.097118 -0.060636 -0.993424
vn -0.096023 -0.063185 -0.993372
vn -0.930814 -0.151243 -0.332732
vn -0.928837 -0.157446 -0.335369
vn -0.905795 -0.177100 0.384929
vn -0.906411 -0.174798 0.384532
vn -0.101894 -0.056583 0.993185
vn -0.101428 -0.057593 0.993174
vn 0.866025 0.000000 0.500000
vn 0.866025 0.000000 0.500000
vn 0.866026 0.000000 -0.500000
vn 0.866026 0.000000 -0.500000
vn -0.017273 -0.039056 -0.999088
vn -0.016678 -0.037711 -0.999150
vn -0.875609 -0.060172 -0.479258
vn -0.875490 -0.059256 -0.479590
vn -0.871200 -0.079317 0.484479
vn -0.871110 -0.076383 0.485112
vn -0.016270 -0.036788 0.999191
vn -0.015630 -0.035339 0.999253
vn 0.866025 0.000000 0.500000
vn 0.866025 0.000000 0.500000
vn 0.866026 0.000000 -0.500000
vn 0.866026 0.000000 -0.500000
vn 0.000000 0.000000 -1.000000
vn 0.000000 0.000000 -1.000000
vn -0.866025 0.000000 -0.500000
vn -0.866025 0.000000 -0.500000
vn -0.866025 0.000000 0.500000
vn -0.866025 0.000000 0.500000
vn -0.000000 0.000000 1.000000
vn -0.000000 0.000000 1.000000
vn 0.866025 0.000000 0.500000
vn 0.866025 0.000000 0.500000
vn 0.866026 0.000000 -0.500000
vn 0.866026 0.000000 -0.500000
vn 0.000000 1.000000 0.000000
vn 0.000000 1.000000 -0.000000
vn 0.000000 1.000000 -0.000000
vn 0.000000 1.000000 -0.000000
vn 0.000000 1.000000 -0.000000
vn 0.000000 1.000000 -0.000000
vn 0.000000 1.000000 0.000000
vn 0.000000 0.000000 -1.000000
vn 0.000000 0.000000 -1.000000
vn -0.866025 0.000000 -0.500000
vn -0.866025 0.000000 -0.500000
vn -0.866026 0.000000 0.500000
vn -0.866026 0.000000 0.500000
vn 0.000000 -0.000000 1.000000
vn 0.000000 -0.000000 1.000000
vn 0.866025 0.000000 0.500000
vn 0.866025 0.000000 0.500000
vn 0.866026 0.000000 -0.500000
vn 0.866026 0.000000 -0.500000
vn 0.866567 -0.125059 -0.483138
vn 0.863002 -0.156074 -0.480488
vn 0.899962 -0.034226 0.434624
vn 0.900741 -0.032690 0.433125
vn 0.003654 0.000164 0.999993
vn 0.003751 -0.000969 0.999992
vn -0.866026 0.000000 0.500000
vn -0.866026 0.000000 0.500000
vn -0.825512 -0.048116 -0.562330
vn -0.825679 -0.048295 -0.562069
vn 0.032474 -0.183388 -0.982504
vn 0.033168 -0.176929 -0.983665
vn 0.866137 -0.105006 -0.488651
vn 0.863617 -0.135394 -0.485628
vn 0.874401 -0.028783 0.484349
vn 0.875498 -0.030298 0.482271
vn 0.003315 0.000443 0.999994
vn 0.003323 -0.000150 0.999994
vn -0.866026 -0.000000 0.500000
vn -0.866026 -0.000000 0.500000
vn -0.852383 -0.028393 -0.522147
vn -0.853471 -0.026222 -0.520480
vn 0.012391 -0.133958 -0.990909
vn 0.011899 -0.128641 -0.991620
s 1
g Pillar7
usemtl initialShadingGroup
f 38/1/1 39/63/2 49/64/3 44/72/4
s 2
f 39/2/5 40/4/6 48/5/7 49/3/8
s 3
f 40/4/9 41/6/10 47/7/11 48/5/12
s 4
f 41/6/13 42/8/14 46/9/15 47/7/16
s 5
f 42/8/17 43/10/18 45/11/19 46/9/20
s 6
f 43/10/21 38/1/22 44/72/23 45/11/24
s 1
f 7/77/25 8/65/26 14/66/27 13/14/28
s 2
f 8/12/29 9/15/30 15/16/31 14/13/32
s 3
f 9/15/33 10/17/34 16/18/35 15/16/36
s 4
f 10/17/37 11/19/38 17/20/39 16/18/40
s 5
f 11/19/41 12/21/42 18/22/43 17/20/44
s 6
f 12/21/45 7/77/46 13/14/47 18/22/48
s 1
f 13/14/28 14/66/27 20/67/49 19/24/50
s 2
f 14/13/32 15/16/31 21/25/51 20/23/52
s 3
f 15/16/36 16/18/35 22/26/53 21/25/54
s 4
f 16/18/40 17/20/39 23/27/55 22/26/56
s 5
f 17/20/44 18/22/43 24/28/57 23/27/58
s 6
f 18/22/48 13/14/47 19/24/59 24/28/60
s 1
f 19/24/50 20/67/49 26/68/61 25/30/62
s 2
f 20/23/52 21/25/51 27/31/63 26/29/64
s 3
f 21/25/54 22/26/53 28/32/65 27/31/66
s 4
f 22/26/56 23/27/55 29/33/67 28/32/68
s 5
f 23/27/58 24/28/57 30/34/69 29/33/70
s 6
f 24/28/60 19/24/59 25/30/71 30/34/72
s 1
f 25/30/62 26/68/61 32/69/73 31/36/74
s 2
f 26/29/64 27/31/63 33/37/75 32/35/76
s 3
f 27/31/66 28/32/65 34/38/77 33/37/78
s 4
f 28/32/68 29/33/67 35/39/79 34/38/80
s 5
f 29/33/70 30/34/69 36/40/81 35/39/82
s 6
f 30/34/72 25/30/71 31/36/83 36/40/84
s 13
f 31/41/85 32/42/86 37/43/87
f 32/42/86 33/44/88 37/43/87
f 33/44/88 34/45/89 37/43/87
f 34/45/89 35/46/90 37/43/87
f 35/46/90 36/47/91 37/43/87
f 36/47/91 31/41/85 37/43/87
s 1
f 1/70/92 2/71/93 39/63/2 38/1/1
s 2
f 2/48/94 3/49/95 40/4/6 39/2/5
s 3
f 3/49/96 4/50/97 41/6/10 40/4/9
s 4
f 4/50/98 5/51/99 42/8/14 41/6/13
s 5
f 5/51/100 6/52/101 43/10/18 42/8/17
s 6
f 6/52/102 1/70/103 38/1/22 43/10/21
f 45/11/24 44/72/23 50/74/104 51/53/105
s 5
f 46/9/20 45/11/19 51/53/106 52/54/107
s 4
f 47/7/16 46/9/15 52/54/108 53/55/109
s 3
f 48/5/12 47/7/11 53/55/110 54/56/111
s 2
f 49/3/8 48/5/7 54/56/112 55/57/113
s 1
f 44/72/4 49/64/3 55/73/114 50/74/115
s 6
f 51/53/105 50/74/104 56/76/116 57/58/117
s 5
f 52/54/107 51/53/106 57/58/118 58/59/119
s 4
f 53/55/109 52/54/108 58/59/120 59/60/121
s 3
f 54/56/111 53/55/110 59/60/122 60/61/123
s 2
f 55/57/113 54/56/112 60/61/124 61/62/125
s 1
f 50/74/115 55/73/114 61/75/126 56/76/127
s 6
f 57/58/117 56/76/116 7/77/46 12/21/45
s 5
f 58/59/119 57/58/118 12/21/42 11/19/41
s 4
f 59/60/121 58/59/120 11/19/38 10/17/37
s 3
f 60/61/123 59/60/122 10/17/34 9/15/33
s 2
f 61/62/125 60/61/124 9/15/30 8/12/29
s 1
f 56/76/127 61/75/126 8/65/26 7/77/25
