# This file uses centimeters as units for non-parametric coordinates.

mtllib Pillar8.mtl
g default
v 0.500000 0.000000 -0.866025
v -0.500000 0.000000 -0.866026
v -1.000000 0.000000 -0.000000
v -0.500000 0.000000 0.866025
v 0.500000 0.000000 0.866025
v 1.000000 0.000000 0.000000
v 0.525228 3.374794 -0.502658
v -0.509710 3.260043 -0.834349
v -1.000000 3.264032 -0.000000
v -0.500000 3.264032 0.866025
v 0.500000 3.264032 0.866025
v 0.798777 3.378783 -0.077351
v 0.500000 4.557887 -0.866025
v -0.500000 4.557887 -0.866026
v -1.000000 4.557887 -0.000000
v -0.500000 4.557887 0.866025
v 0.500000 4.557887 0.866025
v 1.000000 4.557887 0.000000
v 0.500000 5.633932 -0.866025
v -0.500000 5.633932 -0.866026
v -1.000000 5.633932 -0.000000
v -0.500000 5.806627 0.866025
v 0.500000 5.877009 0.866025
v 1.000000 5.806627 0.000000
v 0.000000 5.752361 0.000000
v 0.500000 1.235592 -0.866025
v -0.500000 1.235592 -0.866026
v -1.000000 1.235592 -0.000000
v -0.500000 1.235592 0.866025
v 0.500000 1.235592 0.866025
v 1.000000 1.235592 0.000000
v 0.500000 2.859136 -0.866025
v 0.982303 2.854438 -0.007729
v 0.483785 2.854832 0.858945
v -0.500000 2.859136 0.866025
v -1.000000 2.859136 -0.000000
v -0.500000 2.859136 -0.866026
vt 0.680030 0.178197
vt 0.028688 0.178197
vt 0.028688 0.394120
vt 0.158957 0.178197
vt 0.158957 0.394120
vt 0.289225 0.178197
vt 0.289225 0.394120
vt 0.419493 0.178197
vt 0.418168 0.393547
vt 0.549762 0.178197
vt 0.550740 0.393495
vt 0.031774 0.447438
vt 0.028688 0.620044
vt 0.680030 0.620044
vt 0.158957 0.447969
vt 0.158957 0.620044
vt 0.289225 0.447969
vt 0.289225 0.620044
vt 0.419493 0.447969
vt 0.419493 0.620044
vt 0.561771 0.463230
vt 0.549762 0.620044
vt 0.028688 0.763152
vt 0.680030 0.763152
vt 0.158957 0.763152
vt 0.289225 0.786120
vt 0.948360 0.984096
vt 0.862847 0.984096
vt 0.905603 0.898583
vt 0.820091 0.898583
vt 0.862847 0.813071
vt 0.948360 0.813071
vt 0.991116 0.898583
vt 0.419493 0.795480
vt 0.549762 0.786120
vt 0.028688 0.013870
vt 0.158957 0.013870
vt 0.289225 0.013870
vt 0.419493 0.013870
vt 0.549762 0.013870
vt 0.810298 0.178197
vt 0.810298 0.394120
vt 0.813384 0.447438
vt 0.810298 0.620044
vt 0.810298 0.763152
vt 0.680030 0.013870
vt 0.810298 0.013870
vt 0.680030 0.394120
vt 0.644732 0.462699
vn 0.031397 0.096943 -0.994795
vn 0.000000 -0.000000 -1.000000
vn 0.000000 -0.000000 -1.000000
vn 0.031160 0.096213 -0.994873
vn -0.866025 0.000000 -0.500000
vn -0.866025 0.000000 -0.500000
vn -0.865651 0.001839 -0.500644
vn -0.865667 0.001763 -0.500617
vn -0.866026 0.000000 0.500000
vn -0.866026 0.000000 0.500000
vn -0.866026 -0.000000 0.500000
vn -0.866026 -0.000000 0.500000
vn 0.002021 0.001245 0.999997
vn 0.002015 0.001241 0.999997
vn 0.003569 -0.000023 0.999994
vn 0.003569 -0.000010 0.999994
vn 0.866236 0.006443 0.499593
vn 0.866236 0.006439 0.499594
vn 0.875559 0.050041 0.480513
vn 0.875794 0.051132 0.479970
vn 0.867651 0.002010 -0.497171
vn 0.867655 0.002015 -0.497163
vn 0.867229 0.040471 -0.496261
vn 0.866743 0.048004 -0.496440
vn 0.159988 0.015780 -0.986993
vn 0.092283 -0.084897 -0.992107
vn 0.092623 -0.085209 -0.992049
vn 0.162078 -0.022657 -0.986518
vn -0.864131 -0.000012 -0.503266
vn -0.865000 -0.001580 -0.501769
vn -0.865008 -0.001568 -0.501756
vn -0.864131 0.000088 -0.503266
vn -0.866026 -0.000000 0.500000
vn -0.866026 0.000000 0.500000
vn -0.866026 0.000000 0.500000
vn -0.866026 -0.000000 0.500000
vn 0.000828 -0.002045 0.999998
vn -0.000000 0.000000 1.000000
vn -0.000000 0.000000 1.000000
vn 0.000844 -0.002085 0.999997
vn 0.915185 -0.018773 0.402596
vn 0.891215 -0.042116 0.451621
vn 0.891430 -0.042508 0.451160
vn 0.914985 -0.002611 0.403479
vn 0.859260 0.008052 -0.511476
vn 0.861915 -0.048904 -0.504689
vn 0.861615 -0.051712 -0.504922
vn 0.859225 0.001426 -0.511596
vn 0.000000 0.000000 -1.000000
vn 0.000000 0.000000 -1.000000
vn -0.866025 0.000000 -0.500000
vn -0.866025 0.000000 -0.500000
vn -0.866026 0.000000 0.500000
vn -0.866025 0.000000 0.500000
vn -0.000000 0.000000 1.000000
vn -0.000000 0.000000 1.000000
vn 0.866026 0.000000 0.500000
vn 0.866026 0.000000 0.500000
vn 0.866026 0.000000 -0.500000
vn 0.866026 0.000000 -0.500000
vn -0.026624 0.988249 -0.150515
vn -0.058804 0.993060 -0.101851
vn -0.068734 0.990506 -0.119050
vn -0.117038 0.988249 -0.098315
vn -0.093265 0.988883 -0.115811
vn -0.061845 0.992321 -0.107119
vn -0.053663 0.988883 -0.138675
vn 0.000000 0.000000 -1.000000
vn 0.000000 0.000000 -1.000000
vn -0.866025 0.000000 -0.500000
vn -0.866025 0.000000 -0.500000
vn -0.866026 0.000000 0.500000
vn -0.866026 0.000000 0.500000
vn 0.000000 -0.000000 1.000000
vn 0.000000 -0.000000 1.000000
vn 0.866025 0.000000 0.500000
vn 0.866025 0.000000 0.500000
vn 0.866026 0.000000 -0.500000
vn 0.866026 0.000000 -0.500000
s 1
g Pillar8
usemtl initialShadingGroup
f 32/48/1 26/1/2 27/41/3 37/42/4
s 2
f 27/2/5 28/4/6 36/5/7 37/3/8
s 3
f 28/4/9 29/6/10 35/7/11 36/5/12
s 4
f 29/6/13 30/8/14 34/9/15 35/7/16
s 5
f 30/8/17 31/10/18 33/11/19 34/9/20
s 6
f 31/10/21 26/1/22 32/48/23 33/11/24
s 1
f 8/43/25 14/44/26 13/14/27 7/49/28
s 2
f 9/15/29 15/16/30 14/13/31 8/12/32
s 3
f 10/17/33 16/18/34 15/16/35 9/15/36
s 4
f 11/19/37 17/20/38 16/18/39 10/17/40
s 5
f 12/21/41 18/22/42 17/20/43 11/19/44
s 6
f 7/49/45 13/14/46 18/22/47 12/21/48
s 1
f 13/14/27 14/44/26 20/45/49 19/24/50
s 2
f 14/13/31 15/16/30 21/25/51 20/23/52
s 3
f 15/16/35 16/18/34 22/26/53 21/25/54
s 4
f 16/18/39 17/20/38 23/34/55 22/26/56
s 5
f 17/20/43 18/22/42 24/35/57 23/34/58
s 6
f 18/22/47 13/14/46 19/24/59 24/35/60
s 13
f 19/27/61 20/28/62 25/29/63
f 20/28/62 21/30/64 25/29/63
f 21/30/64 22/31/65 25/29/63
f 22/31/65 23/32/66 25/29/63
f 23/32/66 24/33/67 25/29/63
f 24/33/67 19/27/61 25/29/63
s 1
f 1/46/68 2/47/69 27/41/3 26/1/2
s 2
f 2/36/70 3/37/71 28/4/6 27/2/5
s 3
f 3/37/72 4/38/73 29/6/10 28/4/9
s 4
f 4/38/74 5/39/75 30/8/14 29/6/13
s 5
f 5/39/76 6/40/77 31/10/18 30/8/17
s 6
f 6/40/78 1/46/79 26/1/22 31/10/21
f 33/11/24 32/48/23 7/49/45 12/21/48
s 5
f 34/9/20 33/11/19 12/21/41 11/19/44
s 4
f 35/7/16 34/9/15 11/19/37 10/17/40
s 3
f 36/5/12 35/7/11 10/17/33 9/15/36
s 2
f 37/3/8 36/5/7 9/15/29 8/12/32
s 1
f 32/48/1 37/42/4 8/43/25 7/49/28
