# This file uses centimeters as units for non-parametric coordinates.

mtllib Pillar2.mtl
g default
v 0.500000 0.000000 -0.866025
v -0.500000 0.000000 -0.866026
v -1.000000 0.000000 -0.000000
v -0.500000 0.000000 0.866025
v 0.500000 0.000000 0.866025
v 1.000000 0.000000 0.000000
v 0.499103 0.954915 -0.800830
v -0.443987 0.954915 -0.832651
v -0.943090 0.954916 -0.031821
v -0.499103 0.954916 0.800830
v 0.443987 0.954916 0.832651
v 0.943090 0.954915 0.031821
v 0.286007 1.899583 -0.729226
v -0.485364 2.027071 -0.621544
v -0.771371 2.123465 0.107682
v -0.286007 2.092371 0.729226
v 0.485364 1.964883 0.621544
v 0.771371 1.868489 -0.107682
v 0.170160 3.159731 -0.694737
v -0.513379 3.033877 -0.504306
v -0.683539 2.946043 0.190430
v -0.170160 2.984064 0.694737
v 0.513379 3.109918 0.504306
v 0.683539 3.197752 -0.190431
v 0.225235 4.261745 -0.390119
v -0.225235 4.261745 -0.390119
v -0.450471 4.261745 -0.000000
v -0.225235 4.261745 0.390119
v 0.225235 4.261745 0.390119
v 0.450471 4.261745 0.000000
v 0.000000 4.261745 0.000000
vt 0.025903 0.015668
vt 0.021752 0.188923
vt 0.666110 0.188923
vt 0.154774 0.015668
vt 0.150624 0.188923
vt 0.283646 0.015668
vt 0.279495 0.188923
vt 0.412517 0.015668
vt 0.408367 0.188923
vt 0.541389 0.015668
vt 0.537238 0.188923
vt 0.043056 0.383449
vt 0.688699 0.360318
vt 0.171843 0.400938
vt 0.302084 0.395297
vt 0.429671 0.372166
vt 0.558458 0.354677
vt 0.059218 0.566119
vt 0.705137 0.588953
vt 0.188211 0.550183
vt 0.318522 0.557081
vt 0.445833 0.579915
vt 0.574826 0.595851
vt 0.025903 0.788897
vt 0.670260 0.788897
vt 0.154774 0.788897
vt 0.283646 0.788897
vt 0.412517 0.788897
vt 0.541389 0.788897
vt 0.948142 0.984734
vt 0.862522 0.984734
vt 0.905332 0.899114
vt 0.819713 0.899114
vt 0.862522 0.813494
vt 0.948142 0.813494
vt 0.990952 0.899114
vt 0.799132 0.788897
vt 0.832447 0.566119
vt 0.816286 0.383449
vt 0.670261 0.015668
vt 0.799132 0.015668
vt 0.794981 0.188923
vn 0.016353 0.051066 -0.998561
vn 0.016353 0.051066 -0.998561
vn -0.007619 0.091054 -0.995817
vn -0.005980 0.088325 -0.996074
vn -0.856603 0.051066 -0.513443
vn -0.856603 0.051066 -0.513443
vn -0.869219 0.087409 -0.486640
vn -0.868627 0.085578 -0.488020
vn -0.872956 0.051066 0.485118
vn -0.872956 0.051066 0.485118
vn -0.854375 0.088515 0.512063
vn -0.855309 0.086735 0.510807
vn -0.016353 0.051066 0.998561
vn -0.016353 0.051066 0.998561
vn 0.018249 0.087580 0.995990
vn 0.016403 0.085637 0.996191
vn 0.856603 0.051066 0.513443
vn 0.856603 0.051066 0.513443
vn 0.871155 0.093558 0.482013
vn 0.870356 0.091018 0.483938
vn 0.872956 0.051066 -0.485118
vn 0.872956 0.051066 -0.485118
vn 0.856501 0.098530 -0.506654
vn 0.857782 0.095092 -0.505140
vn -0.128020 0.088944 -0.987775
vn -0.100011 0.102678 -0.989674
vn -0.916638 0.095809 -0.388067
vn -0.906530 0.103846 -0.409170
vn -0.802376 0.102641 0.587927
vn -0.805987 0.104876 0.582569
vn 0.114332 0.097417 0.988655
vn 0.119329 0.095207 0.988280
vn 0.921803 0.094515 0.375960
vn 0.922597 0.093402 0.374286
vn 0.787496 0.092100 -0.609399
vn 0.795548 0.101907 -0.597258
vn -0.194875 0.106522 -0.975026
vn -0.192979 0.123744 -0.973369
vn -0.942033 0.117940 -0.314107
vn -0.940435 0.126590 -0.315528
vn -0.756617 0.124745 0.641848
vn -0.755987 0.120903 0.643325
vn 0.170661 0.126103 0.977227
vn 0.177041 0.111896 0.977822
vn 0.938796 0.114407 0.324919
vn 0.941111 0.103799 0.321770
vn 0.750515 0.102317 -0.652885
vn 0.750767 0.109246 -0.651471
vn -0.183814 0.200071 -0.962385
vn -0.183814 0.200071 -0.962385
vn -0.928708 0.180597 -0.323863
vn -0.928708 0.180597 -0.323863
vn -0.763236 0.171307 0.622997
vn -0.763236 0.171307 0.622997
vn 0.142376 0.187646 0.971863
vn 0.142376 0.187646 0.971863
vn 0.914557 0.203090 0.349770
vn 0.914558 0.203090 0.349770
vn 0.750349 0.205275 -0.628362
vn 0.750349 0.205275 -0.628362
vn 0.000000 1.000000 0.000000
vn 0.000000 1.000000 0.000000
vn 0.000000 1.000000 0.000000
vn 0.000000 1.000000 0.000000
vn 0.000000 1.000000 0.000000
vn 0.000000 1.000000 0.000001
vn 0.000000 1.000000 0.000000
vn 0.000000 1.000000 -0.000001
vn 0.000000 1.000000 -0.000001
vn 0.000000 1.000000 -0.000001
s 1
g Pillar2
usemtl initialShadingGroup
f 1/40/1 2/41/2 8/42/3 7/3/4
s 2
f 2/1/5 3/4/6 9/5/7 8/2/8
s 3
f 3/4/9 4/6/10 10/7/11 9/5/12
s 4
f 4/6/13 5/8/14 11/9/15 10/7/16
s 5
f 5/8/17 6/10/18 12/11/19 11/9/20
s 6
f 6/10/21 1/40/22 7/3/23 12/11/24
s 1
f 7/3/4 8/42/3 14/39/25 13/13/26
s 2
f 8/2/8 9/5/7 15/14/27 14/12/28
s 3
f 9/5/12 10/7/11 16/15/29 15/14/30
s 4
f 10/7/16 11/9/15 17/16/31 16/15/32
s 5
f 11/9/20 12/11/19 18/17/33 17/16/34
s 6
f 12/11/24 7/3/23 13/13/35 18/17/36
s 1
f 13/13/26 14/39/25 20/38/37 19/19/38
s 2
f 14/12/28 15/14/27 21/20/39 20/18/40
s 3
f 15/14/30 16/15/29 22/21/41 21/20/42
s 4
f 16/15/32 17/16/31 23/22/43 22/21/44
s 5
f 17/16/34 18/17/33 24/23/45 23/22/46
s 6
f 18/17/36 13/13/35 19/19/47 24/23/48
s 1
f 19/19/38 20/38/37 26/37/49 25/25/50
s 2
f 20/18/40 21/20/39 27/26/51 26/24/52
s 3
f 21/20/42 22/21/41 28/27/53 27/26/54
s 4
f 22/21/44 23/22/43 29/28/55 28/27/56
s 5
f 23/22/46 24/23/45 30/29/57 29/28/58
s 6
f 24/23/48 19/19/47 25/25/59 30/29/60
s 7
f 25/30/61 26/31/62 31/32/63
f 26/31/62 27/33/64 31/32/63
f 27/33/64 28/34/65 31/32/63
f 29/35/66 30/36/67 31/32/63
f 30/36/67 25/30/61 31/32/63
s off
f 31/32/68 28/34/69 29/35/70
